4.133333333333333859e-01,4.066666666666666208e-01,5.133333333333334192e-01,7.466666666666668117e-01,8.400000000000000799e-01,9.066666666666668428e-01,9.266666666666667496e-01,9.800000000000000933e-01,9.800000000000000933e-01,9.800000000000000933e-01,9.666666666666667851e-01,9.466666666666666563e-01,9.266666666666667496e-01,8.866666666666667140e-01,7.933333333333333348e-01,6.466666666666666119e-01,6.266666666666667052e-01,6.466666666666667229e-01,6.333333333333334147e-01,6.400000000000000133e-01,5.799999999999999600e-01
5.095238095238094900e-01,4.809523809523809090e-01,5.428571428571428159e-01,5.285714285714285809e-01,6.238095238095237027e-01,6.571428571428570287e-01,6.952380952380952106e-01,7.666666666666664964e-01,7.666666666666666075e-01,7.619047619047618625e-01,7.380952380952380265e-01,6.714285714285714857e-01,6.571428571428572507e-01,6.857142857142857206e-01,7.047619047619047006e-01,7.428571428571428825e-01,8.142857142857142794e-01,7.809523809523808424e-01,7.047619047619048116e-01,7.380952380952380265e-01,7.476190476190475165e-01
3.416666666666666741e-01,3.499999999999999778e-01,3.333333333333333703e-01,3.750000000000000555e-01,5.000000000000000000e-01,5.666666666666666519e-01,7.166666666666666741e-01,7.083333333333333703e-01,8.333333333333332593e-01,8.583333333333331705e-01,7.916666666666667407e-01,7.750000000000000222e-01,7.166666666666666741e-01,6.333333333333331927e-01,6.916666666666666519e-01,6.999999999999999556e-01,7.083333333333332593e-01,6.583333333333333259e-01,6.750000000000000444e-01,6.416666666666668295e-01,6.666666666666666297e-01
4.375000000000000000e-01,4.312500000000000222e-01,4.249999999999999889e-01,6.187500000000000222e-01,7.187500000000000000e-01,7.500000000000000000e-01,8.249999999999999556e-01,8.499999999999999778e-01,8.125000000000000000e-01,8.062500000000000222e-01,7.874999999999999778e-01,7.312499999999999556e-01,7.375000000000000444e-01,6.937499999999999778e-01,6.312499999999999778e-01,5.687499999999999778e-01,6.875000000000000000e-01,6.437500000000000444e-01,6.187500000000000222e-01,5.937500000000000000e-01,5.500000000000000444e-01
3.875000000000000111e-01,3.875000000000000111e-01,4.249999999999999889e-01,3.875000000000000111e-01,4.000000000000000222e-01,3.875000000000000111e-01,4.124999999999999778e-01,3.875000000000000111e-01,3.375000000000000222e-01,4.124999999999999778e-01,4.249999999999999889e-01,4.375000000000000000e-01,4.625000000000000222e-01,4.749999999999999778e-01,5.124999999999999556e-01,4.749999999999999778e-01,5.374999999999999778e-01,5.500000000000000444e-01,4.375000000000000000e-01,3.875000000000000111e-01,4.124999999999999778e-01
6.399999999999999023e-01,6.199999999999999956e-01,6.399999999999999023e-01,6.199999999999998845e-01,6.399999999999999023e-01,6.300000000000000044e-01,6.500000000000001332e-01,6.799999999999999378e-01,6.700000000000000400e-01,7.899999999999999245e-01,7.600000000000000089e-01,6.999999999999999556e-01,6.900000000000000577e-01,7.099999999999999645e-01,6.999999999999999556e-01,6.399999999999999023e-01,6.699999999999999289e-01,6.199999999999998845e-01,6.199999999999998845e-01,6.599999999999999201e-01,6.399999999999999023e-01
