6.235294117647057766e-01,6.941176470588235059e-01,7.411764705882352144e-01,7.529411764705882248e-01,7.588235294117646745e-01,7.235294117647057544e-01,7.470588235294118862e-01,7.176470588235295267e-01,7.117647058823529660e-01,7.941176470588235947e-01,7.647058823529411242e-01,7.705882352941176849e-01,6.941176470588235059e-01,6.764705882352941568e-01,6.352941176470588980e-01,6.352941176470590090e-01,6.941176470588235059e-01,6.764705882352941568e-01,6.588235294117648078e-01,6.999999999999999556e-01,6.882352941176471672e-01
5.374999999999999778e-01,4.124999999999999778e-01,5.250000000000000222e-01,4.625000000000000222e-01,5.875000000000000222e-01,6.250000000000000000e-01,7.375000000000000444e-01,6.999999999999999556e-01,6.875000000000000000e-01,6.374999999999999556e-01,5.749999999999999556e-01,5.749999999999999556e-01,5.749999999999999556e-01,5.250000000000000222e-01,4.625000000000000222e-01,5.000000000000000000e-01,5.999999999999999778e-01,5.749999999999999556e-01,5.250000000000000222e-01,6.125000000000000444e-01,6.125000000000000444e-01
4.461538461538461786e-01,4.461538461538462341e-01,5.923076923076923128e-01,5.538461538461538769e-01,5.461538461538462119e-01,5.461538461538462119e-01,5.692307692307692069e-01,5.846153846153846478e-01,7.307692307692306155e-01,6.923076923076922906e-01,6.307692307692308598e-01,5.923076923076923128e-01,5.384615384615385469e-01,4.461538461538461786e-01,4.615384615384615086e-01,5.615384615384616529e-01,5.769230769230768718e-01,4.846153846153845590e-01,5.846153846153846478e-01,5.615384615384615419e-01,5.692307692307692069e-01
5.000000000000000000e-01,5.500000000000000444e-01,5.687499999999999778e-01,5.187500000000000444e-01,5.562500000000000222e-01,7.500000000000000000e-01,8.000000000000000444e-01,7.937499999999999556e-01,7.375000000000000444e-01,6.937499999999999778e-01,6.250000000000000000e-01,6.374999999999999556e-01,6.250000000000000000e-01,5.000000000000000000e-01,4.562499999999999889e-01,4.625000000000000222e-01,4.437499999999999778e-01,4.625000000000000222e-01,5.000000000000000000e-01,5.625000000000000000e-01,5.312500000000000000e-01
