5.681818181818181213e-01,5.454545454545455252e-01,5.909090909090909394e-01,7.227272727272726627e-01,8.136363636363637131e-01,8.727272727272726849e-01,8.818181818181816123e-01,9.000000000000000222e-01,9.045454545454545414e-01,9.227272727272726183e-01,9.181818181818182101e-01,9.227272727272728403e-01,9.318181818181818787e-01,8.954545454545452809e-01,8.636363636363636465e-01,8.681818181818181657e-01,8.363636363636363091e-01,8.090909090909089718e-01,7.727272727272727071e-01,7.409090909090909616e-01,7.499999999999998890e-01
5.166666666666666075e-01,4.833333333333332260e-01,4.833333333333333925e-01,4.833333333333332815e-01,4.833333333333332815e-01,5.333333333333333259e-01,5.666666666666666519e-01,5.833333333333332593e-01,5.999999999999999778e-01,5.666666666666666519e-01,5.333333333333333259e-01,5.666666666666666519e-01,5.666666666666666519e-01,5.499999999999999334e-01,5.666666666666666519e-01,7.333333333333333925e-01,6.500000000000000222e-01,6.833333333333333481e-01,6.500000000000000222e-01,5.666666666666666519e-01,5.666666666666666519e-01
5.000000000000000000e-01,4.499999999999999001e-01,4.500000000000000111e-01,5.166666666666666075e-01,7.333333333333332815e-01,8.666666666666665853e-01,8.833333333333331927e-01,9.000000000000000222e-01,8.833333333333334147e-01,8.333333333333333703e-01,8.666666666666668073e-01,8.166666666666666519e-01,7.666666666666667185e-01,7.500000000000000000e-01,7.666666666666666075e-01,7.500000000000000000e-01,7.500000000000000000e-01,7.833333333333333259e-01,7.833333333333334370e-01,7.833333333333333259e-01,7.333333333333333925e-01
