4.249999999999999889e-01,3.416666666666666741e-01,3.833333333333333592e-01,4.916666666666666963e-01,5.666666666666666519e-01,7.166666666666665630e-01,6.083333333333331705e-01,6.916666666666666519e-01,7.083333333333333703e-01,6.666666666666666297e-01,7.166666666666665630e-01,6.416666666666666075e-01,6.500000000000000222e-01,6.749999999999999334e-01,6.416666666666666075e-01,5.833333333333332593e-01,6.916666666666666519e-01,6.416666666666667185e-01,5.666666666666666519e-01,6.249999999999998890e-01,5.333333333333334370e-01
5.181818181818180769e-01,6.999999999999999556e-01,8.363636363636363091e-01,8.363636363636363091e-01,8.727272727272727959e-01,8.818181818181818343e-01,8.454545454545454586e-01,8.454545454545454586e-01,8.636363636363636465e-01,8.909090909090909838e-01,9.181818181818182101e-01,9.454545454545455474e-01,9.090909090909091717e-01,8.454545454545454586e-01,7.818181818181819676e-01,7.545454545454546302e-01,6.636363636363635798e-01,6.727272727272726183e-01,6.181818181818181657e-01,6.727272727272728403e-01,7.000000000000000666e-01
6.827586206896552046e-01,6.862068965517242880e-01,6.827586206896553156e-01,6.827586206896552046e-01,6.862068965517241770e-01,7.068965517241381225e-01,7.000000000000000666e-01,7.034482758620689280e-01,6.896551724137930384e-01,6.862068965517241770e-01,6.896551724137931494e-01,6.862068965517240660e-01,6.689655172413793149e-01,6.827586206896552046e-01,6.896551724137931494e-01,6.965517241379310942e-01,6.896551724137931494e-01,7.103448275862069838e-01,7.068965517241379004e-01,7.517241379310344307e-01,7.206896551724139011e-01
4.533333333333333104e-01,9.733333333333333837e-01,9.666666666666667851e-01,9.933333333333334014e-01,9.933333333333334014e-01,9.866666666666666918e-01,9.866666666666666918e-01,9.866666666666666918e-01,1.000000000000000000e+00,9.800000000000000933e-01,9.466666666666668783e-01,8.200000000000000622e-01,6.933333333333332460e-01,5.799999999999998490e-01,4.799999999999999822e-01,4.866666666666666363e-01,6.066666666666666874e-01,5.333333333333333259e-01,5.266666666666666163e-01,5.399999999999999245e-01,4.733333333333333282e-01
3.375000000000000222e-01,7.125000000000000222e-01,9.250000000000000444e-01,9.250000000000000444e-01,8.499999999999999778e-01,9.000000000000000222e-01,9.000000000000000222e-01,9.000000000000000222e-01,8.249999999999999556e-01,8.000000000000000444e-01,7.500000000000000000e-01,6.750000000000000444e-01,5.124999999999999556e-01,5.000000000000000000e-01,4.874999999999999889e-01,5.749999999999999556e-01,4.500000000000000111e-01,4.749999999999999778e-01,4.749999999999999778e-01,5.124999999999999556e-01,4.625000000000000222e-01
5.130434782608694899e-01,7.565217391304347450e-01,7.478260869565216407e-01,8.217391304347824166e-01,8.434782608695652328e-01,8.608695652173914414e-01,8.086956521739130377e-01,7.956521739130434367e-01,8.043478260869564300e-01,7.478260869565216407e-01,7.478260869565217517e-01,7.434782608695651440e-01,7.782608695652173392e-01,6.913043478260869623e-01,6.782608695652174724e-01,6.521739130434783815e-01,6.260869565217391797e-01,5.782608695652173836e-01,5.869565217391304879e-01,5.173913043478259866e-01,5.347826086956521952e-01
5.812500000000000444e-01,8.312500000000000444e-01,9.375000000000000000e-01,9.375000000000000000e-01,9.437499999999999778e-01,9.687500000000000000e-01,9.312500000000000222e-01,9.187499999999999556e-01,8.750000000000000000e-01,8.125000000000000000e-01,8.125000000000000000e-01,8.312500000000000444e-01,6.687499999999999556e-01,6.187500000000000222e-01,5.875000000000000222e-01,5.999999999999999778e-01,5.937500000000000000e-01,5.812500000000000444e-01,5.999999999999999778e-01,5.749999999999999556e-01,6.875000000000000000e-01
5.250000000000000222e-01,8.416666666666667851e-01,8.333333333333333703e-01,9.083333333333334370e-01,8.833333333333331927e-01,8.750000000000000000e-01,8.416666666666665630e-01,8.249999999999999556e-01,7.916666666666667407e-01,8.000000000000000444e-01,7.999999999999999334e-01,7.583333333333331927e-01,7.166666666666666741e-01,6.583333333333334370e-01,7.249999999999998668e-01,6.666666666666667407e-01,6.666666666666667407e-01,6.916666666666666519e-01,7.000000000000000666e-01,7.749999999999999112e-01,8.166666666666667629e-01
